<define-tag pagetitle>DLA-2705-1 scilab</define-tag>
<define-tag report_date>2021-07-08</define-tag>
<define-tag secrefs>CVE-2021-30485 CVE-2021-31229 CVE-2021-31347 CVE-2021-31348 CVE-2021-31598</define-tag>
<define-tag packages>scilab</define-tag>
<define-tag isvulnerable>yes</define-tag>
<define-tag fixed>yes</define-tag>
<define-tag fixed-section>no</define-tag>

#use wml::debian::security

