<define-tag pagetitle>DLA-2792-1 faad2</define-tag>
<define-tag report_date>2021-10-24</define-tag>
<define-tag secrefs>CVE-2018-20199 CVE-2018-20360 CVE-2019-6956 CVE-2021-32274 CVE-2021-32276 CVE-2021-32277 CVE-2021-32278</define-tag>
<define-tag packages>faad2</define-tag>
<define-tag isvulnerable>yes</define-tag>
<define-tag fixed>yes</define-tag>
<define-tag fixed-section>no</define-tag>

#use wml::debian::security

