<define-tag pagetitle>DLA-2611-1 ldb</define-tag>
<define-tag report_date>2021-3-31</define-tag>
<define-tag secrefs>CVE-2020-27840 CVE-2021-20277</define-tag>
<define-tag packages>ldb</define-tag>
<define-tag isvulnerable>yes</define-tag>
<define-tag fixed>yes</define-tag>
<define-tag fixed-section>no</define-tag>

#use wml::debian::security

