<define-tag pagetitle>DLA-2743-2 amd64-microcode</define-tag>
<define-tag report_date>2021-10-18</define-tag>
<define-tag packages>amd64-microcode</define-tag>
<define-tag isvulnerable>yes</define-tag>
<define-tag fixed>yes</define-tag>
<define-tag fixed-section>no</define-tag>

#use wml::debian::security

