<define-tag pagetitle>DLA-2519-1 pacemaker</define-tag>
<define-tag report_date>2021-1-06</define-tag>
<define-tag secrefs>CVE-2018-16877 CVE-2018-16878 CVE-2020-25654</define-tag>
<define-tag packages>pacemaker</define-tag>
<define-tag isvulnerable>yes</define-tag>
<define-tag fixed>yes</define-tag>
<define-tag fixed-section>no</define-tag>

#use wml::debian::security

