<define-tag pagetitle>DLA-831-1 gtk-vnc</define-tag>
<define-tag report_date>2017-2-20</define-tag>
<define-tag secrefs>CVE-2017-5884 CVE-2017-5885 Bug#854450</define-tag>
<define-tag packages>gtk-vnc</define-tag>
<define-tag isvulnerable>yes</define-tag>
<define-tag fixed>yes</define-tag>
<define-tag fixed-section>no</define-tag>

#use wml::debian::security

