<define-tag pagetitle>DLA-2132-1 libzypp</define-tag>
<define-tag report_date>2020-03-03</define-tag>
<define-tag secrefs>CVE-2019-18900</define-tag>
<define-tag packages>libzypp</define-tag>
<define-tag isvulnerable>yes</define-tag>
<define-tag fixed>yes</define-tag>
<define-tag fixed-section>no</define-tag>

#use wml::debian::security
