<define-tag pagetitle>DLA-1450-1 tomcat8</define-tag>
<define-tag report_date>2018-7-29</define-tag>
<define-tag secrefs>CVE-2018-1304 CVE-2018-1305 Bug#802312</define-tag>
<define-tag packages>tomcat8</define-tag>
<define-tag isvulnerable>yes</define-tag>
<define-tag fixed>yes</define-tag>
<define-tag fixed-section>no</define-tag>

#use wml::debian::security

