<define-tag pagetitle>DLA-1314-1 simplesamlphp</define-tag>
<define-tag report_date>2018-3-23</define-tag>
<define-tag secrefs>CVE-2018-7711</define-tag>
<define-tag packages>simplesamlphp</define-tag>
<define-tag isvulnerable>yes</define-tag>
<define-tag fixed>yes</define-tag>
<define-tag fixed-section>no</define-tag>

#use wml::debian::security

