<define-tag pagetitle>DLA-462-1 websvn</define-tag>
<define-tag report_date>2016-5-9</define-tag>
<define-tag secrefs>CVE-2016-1236</define-tag>
<define-tag packages>websvn</define-tag>
<define-tag isvulnerable>yes</define-tag>
<define-tag fixed>yes</define-tag>
<define-tag fixed-section>no</define-tag>

#use wml::debian::security

